%YAML 1.1
%TAG !u! tag:unity3d.com,2011:
--- !u!78 &1
TagManager:
  serializedVersion: 2
  tags:
  - fish
  layers:
  - Default
  - TransparentFX
  - Ignore Raycast
  - 
  - Water
  - UI
  - 
  - 
  - PostProcessing
  - Obstacles
  - Sails
  - BackGround
  - Loot
  - Ship
  - Spell
  - MainCameras
  - BackGroundFX
  - 
  - 
  - 
  - 
  - 
  - 
  - 
  - 
  - 
  - 
  - 
  - 
  - 
  - 
  - 
  m_SortingLayers:
  - name: Default
    uniqueID: 0
    locked: 0
  - name: ForeGroundFX
    uniqueID: 3287708679
    locked: 0
  - name: BackGroundFX
    uniqueID: 2873366503
    locked: 0
