%YAML 1.1
%TAG !u! tag:unity3d.com,2011:
--- !u!1 &2641872047745551706
GameObject:
  m_ObjectHideFlags: 0
  m_CorrespondingSourceObject: {fileID: 0}
  m_PrefabInstance: {fileID: 0}
  m_PrefabAsset: {fileID: 0}
  serializedVersion: 6
  m_Component:
  - component: {fileID: 2641872047745551707}
  - component: {fileID: 2641872047745551705}
  - component: {fileID: 2641872047745551704}
  m_Layer: 9
  m_Name: FishSpawner
  m_TagString: Untagged
  m_Icon: {fileID: 0}
  m_NavMeshLayer: 0
  m_StaticEditorFlags: 0
  m_IsActive: 1
--- !u!4 &2641872047745551707
Transform:
  m_ObjectHideFlags: 0
  m_CorrespondingSourceObject: {fileID: 0}
  m_PrefabInstance: {fileID: 0}
  m_PrefabAsset: {fileID: 0}
  m_GameObject: {fileID: 2641872047745551706}
  m_LocalRotation: {x: 0, y: 0, z: 0, w: 1}
  m_LocalPosition: {x: 9, y: 0, z: 483}
  m_LocalScale: {x: 1, y: 1, z: 1}
  m_Children: []
  m_Father: {fileID: 0}
  m_RootOrder: 0
  m_LocalEulerAnglesHint: {x: 0, y: 0, z: 0}
--- !u!114 &2641872047745551705
MonoBehaviour:
  m_ObjectHideFlags: 0
  m_CorrespondingSourceObject: {fileID: 0}
  m_PrefabInstance: {fileID: 0}
  m_PrefabAsset: {fileID: 0}
  m_GameObject: {fileID: 2641872047745551706}
  m_Enabled: 1
  m_EditorHideFlags: 0
  m_Script: {fileID: 11500000, guid: 38a77d3fdbdf4566908a022f3dc9485f, type: 3}
  m_Name: 
  m_EditorClassIdentifier: 
  ShootPlace: {fileID: 2641872047745551707}
  ShellPrefab: {fileID: 1882725957816994, guid: 361db2bd103cf5540b05328c8eef907c,
    type: 3}
  isShooting: 0
  ReloadTime: 0.02
  pooler: {fileID: 2641872047745551704}
  timeToCompleteReload: 0
  autoShoot: 1
  ShootParticles: {fileID: 0}
  OffsetBounds: {x: 50, y: 50, z: 50}
  OffsetSpeed: {x: 1, y: 1, z: 1}
--- !u!114 &2641872047745551704
MonoBehaviour:
  m_ObjectHideFlags: 0
  m_CorrespondingSourceObject: {fileID: 0}
  m_PrefabInstance: {fileID: 0}
  m_PrefabAsset: {fileID: 0}
  m_GameObject: {fileID: 2641872047745551706}
  m_Enabled: 1
  m_EditorHideFlags: 0
  m_Script: {fileID: 11500000, guid: 73098ca8f002adc4f9debdbe47a78c9a, type: 3}
  m_Name: 
  m_EditorClassIdentifier: 
  MutualizeWaitingPools: 0
  NestWaitingPool: 1
  Pool:
  - GameObjectToPool: {fileID: 1882725957816994, guid: 361db2bd103cf5540b05328c8eef907c,
      type: 3}
    PoolSize: 100
    PoolCanExpand: 0
    Enabled: 1
  PoolingMethod: 3
  CanPoolSameObjectTwice: 1
